IDEA: visual-assignment
…
Not all rows have the field Title, the below code will populate all records with Title. The function unique is used to identify the unique values present in the datatable. The which function returns the row numbers that meet the criteria. Function match is used to obtain value from another dataframe based on the match condition. Lastly, we trim any spaces present at the start or end of the string. This is done using the function str_trim.

title_sub_dataframe=unique(raw_text[c("id","Title")])
row_numbers=which(title_sub_dataframe$Title=="")
title_sub_dataframe=title_sub_dataframe[-c(row_numbers),]
raw_text$Title=title_sub_dataframe$Title[match(raw_text$id,title_sub_dataframe$id)]

### trim space at start and end if there exists
raw_text$Title=str_trim(raw_text$Title, side = c("both"))
raw_text

# A tibble: 5,388 x 4
   newsgroup   id    text                      Title                  
   <chr>       <chr> <chr>                     <chr>                  
 1 All News T~ 121   "TITLE: POK PROTESTS END~ POK PROTESTS END IN AR~
 2 All News T~ 121   "PUBLISHED: 2005/04/06"   POK PROTESTS END IN AR~
 3 All News T~ 121   "LOCATION: ELODIS, Krono~ POK PROTESTS END IN AR~
 4 All News T~ 121   "Fifteen members of the ~ POK PROTESTS END IN AR~
 5 All News T~ 121   "When the federal police~ POK PROTESTS END IN AR~
 6 All News T~ 135   "TITLE: RALLY SCHEDULED ~ RALLY SCHEDULED IN SUP~
 7 All News T~ 135   "PUBLISHED: 2012/04/09"   RALLY SCHEDULED IN SUP~
 8 All News T~ 135   "LOCATION: ABILA, Kronos~ RALLY SCHEDULED IN SUP~
 9 All News T~ 135   "Silvia Marek, leader of~ RALLY SCHEDULED IN SUP~
10 All News T~ 135   "\"I'm calling for an en~ RALLY SCHEDULED IN SUP~
# ... with 5,378 more rows
…
sub_dates3=unique(raw_text[c("id","Published")]) %>% filter(Published %in% dates_to_format)
sub_dates3$Published=as.Date(sub_dates3$Published,format="%d %B %Y")
sub_dates3$Published=format(sub_dates3$Published,"%Y/%m/%d")

raw_text$subdates3=sub_dates3$Published[match(raw_text$id,sub_dates3$id)]

Now we will update the Publish column again and remove all other temporary column we create as part of processing.

raw_text$Published=ifelse(!is.na(raw_text$subdates3),raw_text$subdates3,raw_text$Published)
raw_text=raw_text[,!(names(raw_text) %in% c("subdates","subdates2","subdates3"))]

raw_text$Published=as.Date(raw_text$Published,format="%Y/%m/%d")
raw_text

# A tibble: 5,388 x 6
   newsgroup  id    text            Title          Location Published 
   <chr>      <chr> <chr>           <chr>          <chr>    <date>    
 1 All News ~ 121   "TITLE: POK PR~ POK PROTESTS ~ ELODIS,~ 2005-04-06
 2 All News ~ 121   "PUBLISHED: 20~ POK PROTESTS ~ ELODIS,~ 2005-04-06
 3 All News ~ 121   "LOCATION: ELO~ POK PROTESTS ~ ELODIS,~ 2005-04-06
 4 All News ~ 121   "Fifteen membe~ POK PROTESTS ~ ELODIS,~ 2005-04-06
 5 All News ~ 121   "When the fede~ POK PROTESTS ~ ELODIS,~ 2005-04-06
 6 All News ~ 135   "TITLE: RALLY ~ RALLY SCHEDUL~ ABILA, ~ 2012-04-09
 7 All News ~ 135   "PUBLISHED: 20~ RALLY SCHEDUL~ ABILA, ~ 2012-04-09
 8 All News ~ 135   "LOCATION: ABI~ RALLY SCHEDUL~ ABILA, ~ 2012-04-09
 9 All News ~ 135   "Silvia Marek,~ RALLY SCHEDUL~ ABILA, ~ 2012-04-09
10 All News ~ 135   "\"I'm calling~ RALLY SCHEDUL~ ABILA, ~ 2012-04-09
# ... with 5,378 more rows

Processing Content

Since we have extracted TITLE, LOCATION and PUBLISHED" from the text column and created separate columns for them ,we can exclude all the records that have the text column consisting of these content.

# removing text with TITLE:, LOCATION:, PUBLISHED:
row_numbers1=which(startsWith(raw_text$text, "TITLE"))
row_numbers2=which(startsWith(raw_text$text, "PUBLISHED"))
row_numbers3=which(startsWith(raw_text$text, " PUBLISHED"))
row_numbers4=which(startsWith(raw_text$text, "LOCATION"))
row_numbers5=which(startsWith(raw_text$text, "AUTHOR"))
raw_text=raw_text[-c(row_numbers1,row_numbers2,row_numbers3,row_numbers4,row_numbers5),]
raw_text

# A tibble: 3,015 x 6
   newsgroup  id    text            Title          Location Published 
   <chr>      <chr> <chr>           <chr>          <chr>    <date>    
 1 All News ~ 121   "Fifteen membe~ POK PROTESTS ~ ELODIS,~ 2005-04-06
 2 All News ~ 121   "When the fede~ POK PROTESTS ~ ELODIS,~ 2005-04-06
 3 All News ~ 135   "Silvia Marek,~ RALLY SCHEDUL~ ABILA, ~ 2012-04-09
 4 All News ~ 135   "\"I'm calling~ RALLY SCHEDUL~ ABILA, ~ 2012-04-09
 5 All News ~ 152   "In a glitzy p~ LACK OF DETAI~ ABILA, ~ 1993-02-02
 6 All News ~ 154   "1998/03/20"    ELODIS, KRONO~ ELODIS,~ 1998-03-20
 7 All News ~ 154   "NOTE: This ar~ ELODIS, KRONO~ ELODIS,~ 1998-03-20
 8 All News ~ 154   "This article ~ ELODIS, KRONO~ ELODIS,~ 1998-03-20
 9 All News ~ 154   "ELODIS, Krono~ ELODIS, KRONO~ ELODIS,~ 1998-03-20
10 All News ~ 154   "Two weeks pri~ ELODIS, KRONO~ ELODIS,~ 1998-03-20
# ... with 3,005 more rows
…
Now, we have to combine all the recodes with the same id. After processing, we now will have 845 records that reflect the 845 files that we have and each record consists of the newsgroup, id, Title, Location, Published and Content.

content=raw_text %>%
  group_by(id) %>%
  summarise_all(funs(toString(na.omit(.))))

raw_text=raw_text[,!(names(raw_text) %in% c("text"))]
raw_text$Content=content$text[match(raw_text$id,content$id)]
cleaned_text=unique(raw_text)
cleaned_text

# A tibble: 845 x 6
   newsgroup  id    Title          Location Published  Content        
   <chr>      <chr> <chr>          <chr>    <date>     <chr>          
 1 All News ~ 121   POK PROTESTS ~ ELODIS,~ 2005-04-06 "Fifteen membe~
 2 All News ~ 135   RALLY SCHEDUL~ ABILA, ~ 2012-04-09 "Silvia Marek,~
 3 All News ~ 152   LACK OF DETAI~ ABILA, ~ 1993-02-02 "In a glitzy p~
 4 All News ~ 154   ELODIS, KRONO~ ELODIS,~ 1998-03-20 "NOTE: This ar~
 5 All News ~ 237   ELODIS, KRONO~ <NA>     1998-05-15 "NOTE: This ar~
 6 All News ~ 251   ELODIS PUBLIC~ ELODIS,~ 2004-05-29 "The Elodis Co~
 7 All News ~ 341   WHO BRINGS A ~ ABILA, ~ 2013-06-21 "ABILA, Kronos~
 8 All News ~ 391   TAX MEASURE D~ ABILA, ~ 2001-03-22 "A measure to ~
 9 All News ~ 420   POK REPRESENT~ ABILA, ~ 1998-11-15 "Representativ~
10 All News ~ 554   ELIAN KAREL D~ ABILA, ~ 2009-06-20 "Elian Karel, ~
# ... with 835 more rows
…
Preparing Texts:

The textnets package requires text that is contained within a dataframe, where each row represents a document. The text of each document must be contained within a single row therefore we have to group all newspaper article based on their name and club all the articles text to one row. Since we have 29 newspapers provided, we should be having 29 rows. For this dataframe, as discussed above only the newspaper name and the content are required. Therefore, we can drop the other columns.

cleaned_text=read_excel("data/cleanArticles.xlsx")
textNet_data=cleaned_text %>%
  group_by(newsgroup) %>%
  summarise_all(funs(toString(na.omit(.))))
textNet_data=textNet_data[,!(names(textNet_data) %in% c("id","Location","Published","Title"))]
textNet_data

# A tibble: 29 x 3
   newsgroup     ...1                       Content                   
   <chr>         <chr>                      <chr>                     
 1 All News Tod~ 1, 2, 3, 4, 5, 6, 7, 8, 9~ "Fifteen members of the P~
 2 Athena Speaks 19, 20, 21, 22, 23, 24, 2~ "Miriam Avila, an adminis~
 3 Central Bull~ 44, 45, 46, 47, 48, 49, 5~ "The Protectors of Kronos~
 4 Centrum Sent~ 65, 66, 67, 68, 69, 70, 7~ "2232 - There are relatio~
 5 Daily Pegasus 101, 102, 103, 104, 105, ~ "A heavy rain did not sto~
 6 Everyday News 127, 128, 129, 130, 131, ~ "It is the biggest compan~
 7 Homeland Ill~ 142, 143, 144, 145, 146, ~ "1018 - A fire alarm has ~
 8 Internationa~ 206, 207, 208, 209, 210, ~ "Five young people were a~
 9 Internationa~ 226, 227, 228, 229, 230, ~ "It is the biggest compan~
10 Kronos Star   240, 241, 242, 243, 244, ~ "POK members held their a~
# ... with 19 more rows
…
packages = c('dplyr','ggplot2','udpipe','lattice','knitr')
for(p in packages){
  if(!require(p, character.only = T)){
  install.packages(p)
  }
  library(p, character.only = T)
}

Plotting to understand how the frequency of headlines is:

news=cleaned_text
news %>% group_by(Published) %>% count() %>% arrange(desc(n))

# A tibble: 222 x 2
# Groups:   Published [222]
   Published               n
   <dttm>              <int>
 1 2014-01-20 00:00:00   222
 2 2014-01-21 00:00:00    43
 3 2014-01-19 00:00:00    18
 4 2009-06-21 00:00:00    11
 5 2009-03-13 00:00:00     9
 6 2012-06-21 00:00:00     9
 7 2013-12-16 00:00:00     9
 8 2010-06-21 00:00:00     8
 9 2012-06-20 00:00:00     8
10 2005-04-06 00:00:00     7
# ... with 212 more rows
…
